{
  "project_info": {
    "project_number": "622095646005",
    "firebase_url": "https://apgroundbooking-default-rtdb.firebaseio.com",
    "project_id": "apgroundbooking",
    "storage_bucket": "apgroundbooking.appspot.com"
  },
  "client": [
    {
      "client_info": {
        "mobilesdk_app_id": "1:622095646005:android:886cc04c83b83f5071607c",
        "android_client_info": {
          "package_name": "com.example.ap_booking_user"
        }
      },
      "oauth_client": [
        {
          "client_id": "622095646005-m9461bst1a2nsq26fstkoo98tbqjotcn.apps.googleusercontent.com",
          "client_type": 1,
          "android_info": {
            "package_name": "com.example.ap_booking_user",
            "certificate_hash": "3f4b0147abfaed00d641c7cbbed4c1626d7e65fb"
          }
        },
        {
          "client_id": "622095646005-32cmushqvcfft3c5489qgcrocud5qm2o.apps.googleusercontent.com",
          "client_type": 3
        }
      ],
      "api_key": [
        {
          "current_key": "AIzaSyBLXGL95-r4BgTMh4Uu2o3fjcBD-nIG5hU"
        }
      ],
      "services": {
        "appinvite_service": {
          "other_platform_oauth_client": [
            {
              "client_id": "622095646005-32cmushqvcfft3c5489qgcrocud5qm2o.apps.googleusercontent.com",
              "client_type": 3
            }
          ]
        }
      }
    },
    {
      "client_info": {
        "mobilesdk_app_id": "1:622095646005:android:01240251dced9b9d71607c",
        "android_client_info": {
          "package_name": "com.example.ap_ground_admin"
        }
      },
      "oauth_client": [
        {
          "client_id": "622095646005-cdtehl7qvgmmh3neqf78q3kr42rs752f.apps.googleusercontent.com",
          "client_type": 1,
          "android_info": {
            "package_name": "com.example.ap_ground_admin",
            "certificate_hash": "3f4b0147abfaed00d641c7cbbed4c1626d7e65fb"
          }
        },
        {
          "client_id": "622095646005-32cmushqvcfft3c5489qgcrocud5qm2o.apps.googleusercontent.com",
          "client_type": 3
        }
      ],
      "api_key": [
        {
          "current_key": "AIzaSyBLXGL95-r4BgTMh4Uu2o3fjcBD-nIG5hU"
        }
      ],
      "services": {
        "appinvite_service": {
          "other_platform_oauth_client": [
            {
              "client_id": "622095646005-32cmushqvcfft3c5489qgcrocud5qm2o.apps.googleusercontent.com",
              "client_type": 3
            }
          ]
        }
      }
    }
  ],
  "configuration_version": "1"
}