<svg xmlns="http://www.w3.org/2000/svg" xmlns:xlink="http://www.w3.org/1999/xlink" width="428" height="327" viewBox="0 0 428 327">
  <defs>
    <clipPath id="clip-topBar">
      <rect width="428" height="327"/>
    </clipPath>
  </defs>
  <g id="topBar" clip-path="url(#clip-topBar)">
    <rect width="428" height="327" fill="#fff"/>
    <g id="Group_2" data-name="Group 2">
      <ellipse id="Ellipse_1" data-name="Ellipse 1" cx="281" cy="162" rx="281" ry="162" transform="translate(-67 -160)" fill="#f7faff"/>
      <ellipse id="Ellipse_4" data-name="Ellipse 4" cx="281" cy="162" rx="281" ry="162" transform="translate(-67 -191)" fill="#edf4fe"/>
    </g>
  </g>
</svg>
